100 sim took 5.251898240996525
1000 sim took 7.101001321978401
10000 sim took 7.507244637992699
100000 sim took 8.623557637969498
1000000 sim took 12.906630199053325
2000000 sim took 18.440398555016145
4000000 sim took 29.819901305017993
10000000 sim took 65.74573785701068
20000000 sim took 125.0151709879865
40000000 sim took 257.72896638599923
